PROJECT NAME: Go to work by bike
PROJECT SOURCE: SI-drive
---------------------------------------
NEW PAGE: 

Bike 2 Work | Join Bike2Work! Bike to work! =============================== DOCTYPE html [if IE 7]> * // * * / var mejsL10n = {` 'language': '' ro '', '' strings' ': {' mejs.install-flash '': '' Use a navigator that does not have Flash Player installed or installed. Please start the Flash Player module or download the latest version from https: \ / \ get.adobe.com \ / flashplayer \ / '', '' mejs.fullscreen-off ' ':' 'Complete Screen' ',' 'mejs.fullscreen-on' ':' 'Full Screen' ',' 'mejs.download-video' ' : '' Download video '', '' mejs.fullscreen '': '' Full Screen '', '' mejs.time-jump-forward '': '' Mejs.loop '' '' '' '' ',' 'mejs.play' ':' 'Running \', '' mejs.pause '': '' Pauz \ u0103 '', '' mejs.close '': '' \ u00cenchide '', '' mejs.time-slider '': -help-text '': '' Use the right / left keys to enter a second, up and down to enter ten seconds . ``, '' mejs.time-skip-back '': [`` Spend a second \ u0103 '', '' Mejs.mute-toggle '', '' mejs.capes-chapters '': '' Capitole '', '' mejs.none '': 'Unspecified' ':' 'Sweep Mode Switch' ',' 'mejs.volume-help-text' ':' 'Use the up / down keys to select or decrease the volume. ``, '' mejs.unmute '': '' Start sound \ ',' 'mejs.mute' ':' 'Sound \', '' mejs.volume-slider ' Volum carusel '', '' mejs.video-player '': '' Video Player '', '' mejs.audio-player '': 'Jump over Announcement', '' mejs.ad-skip-info '': [`` Jump '', '' Jump 1 '', '' mejs .source-chooser '': '' Selector surs \ ',' 'mejs.stop' ':' 'Opre \ u0219te' ',' 'mejs.speed-rate' ': u0103 ',' 'mejs.live-broadcast' ':' 'Transmission \ u00een direct' ',' 'mejs.afrikaans'': '' Afrikaans' ',' 'mejs.albanian' ' : '' Albanian '', '' mejs.arabic '': '' Arab \ u0103 '', '' mejs.belarusian '': 'Bulgar \ u0103' ',' 'mejs.catalan' ':' 'Catalan \', '' mejs.chinese '': '' Chinese, 'Chinese, Traditional Chinese Traditional Chinese Traditional Croatian Croatian' '' mejs.danish '': '' Danish \ ',' 'mejs.dutch' ':' 'Dutch' ',' 'mejs.czech' ': , '' mejs.english '': '' English '', '' mejs.estonian '': '' Eston \ '0103 '', '' mejs.filipino '': '' Filipino '', '' mejs. Finnish '', '' mejs.french '': '' Frenchz \ ',' 'mejs.galician' ':' 'Galician \ u0103' ', '' Mejs.greek '': '' Greac \ u0103 '', '' mejs.haitian-creole '': '' Creol \ u0103 haitian \ u0103 '', '' mejs .hebrew '': '' Ebraic \ u0103 '', '' mejs.hindi '': '' Hindus \ u0103 '', '' mejs.hungarian '': '' Magyar \ u0103 '', mejs.icelandic '': '' Icelandic \ u0103 '', '' mejs.indonesian '': '' Indonesian \ u0103 '', '' mejs.irish '': Italian \ u0103 ',' 'mejs.japanese' ':' 'Japanese \ u0103' ',' 'mejs.korean' ': u0103 ',' 'mejs.lithuanian' ':' 'Lithuanian \', '' mejs.macedonian '': '' Macedonian \ u0103 ' ',' 'mejs.maltese' ':' 'Maltez' ',' 'mejs.norwegian' ':' 'Norwegian \', '' mejs.persian '': '' mejs.polish '': '' Polonez '', '' mejs.portuguese '': '' Portuguese ',' 'mejs.romanian' ':' Rom \ u00e2n \ u0103 ' '' mejs.russian '': '' Rus \ u0103 '', '' mejs.serbian '': '' S \ u00e2rb \ u0103 ',' 'mejs.slovak' ': '' mejs.slovenian '': '' slovak '', '' mejs.spanish '': '' spaniol '', '' mejs.swahili '': '' Swahili '', '' mejs. swedish '': '' swedish \ u0103 '', '' mejs.tagalog '': '' Tagalog '', '' mejs.thai '': '' Turc\u0103 '' , '' mejs.ukrainian '' : '' Ucrainean\u0103 '' , '' mejs.vietnamese '' : '' Vietnamez\u0103 '' , '' mejs.welsh '' : '' Galez\u0103 '' , '' mejs.yiddish '' : '' Idi\u0219 '' } } ; /* */var ajaxurl = 'http : //www.bike2work.ro/wp-admin/admin-ajax.php ' ; Custom CSS # content a { color : # 3cace1 ; } .zilla-button.link , .entry-meta .zilla-button.link , .home-portfolio-slider-thumbs .entry-thumb { background-color : # 3cace1 ; } .page-template-template-home-php .site-header { background-color : # 29aae1 ; } .site-header.has-image { background-color : # 29aae1 ; } .site-footer { background-color : # 29aae1 ; } .upper-home-page2 { background-color: # 29aae1; } / Custom CSSEND headBEGIN bodyDownload the iVelo app on your smartphone: XSTART div for popup Bike2Work 2016 Sign up for Bike2Work 2016 campaign! Pedal from 16 May to 15 July and get involved in a cleaner city! If you're new to the campaign, sign up here. If you participated in last year's campaign, then update your account on your page and continue to pedal! X END div for popup Bike2Work 2016START div for popup Bike2Work 2017 Bike2Work campaign continues in 2017. We'll come back soon with details. X END div for popup Bike2Work 2017BEGIN # containerBEGIN # masthead. site-headerBEGIN # logo.site-logoEND # logo. site-logoBEGIN # primary-navigationAcasaRegister! RankingsTerms 2016Istoric 2015NoteHelpLoginfunction closeMessage () {jQuery ('.error_wid_login') .hide (); } UsernameParola Remember me Recover Password ..END # primary-navigationEND # masthead .site-headerEnd your CampaignBike2Work! Bike to work! BEGIN # content. Site-contentBEGIN # primary .site-mainWant to participateClear out your Bike2Work campaign and ride your bike! Help us build a city for you and other bikers.Pedale for your company! Choose your bike and convince your colleagues to pedal! In addition to reducing CO2 emissions and fuel savings, Bike2Work has a major impact on employee health and transport costs. Bike2Work Campaign Campaign Let us make this campaign known to help us convince more people to adopt the bicycle as an alternative means of transport. Step 1Inscribe Bike2WorkIntra in the Bike2Works Campaign and Work Cubic Cycle! Pedal and accumulate as many kilometers as possible for a cleaner city! * Bike2Work is a project co-funded by the European Union under the umbrella of the European Bicycle Federation (ECF) between 2015 and 2016. Register now! Step 2Take a team! Time to prove it that you are ACEL cyclist! Leave your car at home and cycle to work. And not to feel alone, persuade two more colleagues to join and form a team. Leave your car at home! Step 3 Good things are rewarded! You managed ! You came with your bike at work! You and your colleagues have proven that the bicycle is an alternative means of transport. Your engagement deserves our awards and everyone's recognition! I succeeded ! Step 1Inscribe your company in Bike2WorkIntra in the Bike2Work campaign and encourage your employees to come to work with your bike! Prove that you have a responsible company! The first step: Register your company and say what you did and what you wanted to do for your employees. The campaign runs from May 18 to June 28, 2015. I want to participate! Step 2 Encourage Cycling Into the Bike2Work Campaign and Encourage Your Bicyclists to Work! The first step: Register your company and say what you did and what you wanted to do for your employees. The campaign runs between May 18th and June 28th, 2015. I want to participatePassword 3 Everyone winsGoing in the Bike2Work campaign brings benefits , to your employees as to employers. Because your effort and time matter to us, we offer you something in return: an annual certificate attesting that you are a bike-friendly company. My certificationAscultaI am a supporterIf you like what we do if you support the ideas promoted through the Bike2Work campaign, you can become one of our supporters. Tell your friends about us, write or post project information on your blog or pages or recommend us companies to contact. The campaign runs from May 18 to June 28, 2015. I want to help! About Bike2WorkBike2Works a project co-funded by the European Union, under the umbrella of the European Cyclists Federation (ECF) and whose main purpose is to encourage the transport of employees to and from bicycle work. The Green Revolutions Association has joined this project with other organizations from 11 European countries (Netherlands, Germany, Denmark, Austria, Italy, Slovenia, the United Kingdom, France, Croatia, Malta and Bulgaria). The objectives of the Bike2Work project are: to determine 1,000 employees in the country to use the bicycle as an alternative means of transport from home to work and reversal and determination of a number of 20 companies to adopt internal measures to support and encourage bicycle transportThe results obtained in the project, both survey and bicycle routes, will be presented to the public, participating companies and local authorities. At European level, the data will be centralized from all 12 states of the European Cyclists Federation and will be presented to the European institutions. Participation in this project has officially secured a place in the big family of European bikers! Partner countries in the B2WDetail project: www.bike2work-project.euFrom Green RevolutionGreen Revolution supports the reduction of pollution in major cities, the impact of human activities on the environment, and the increase in the quality of life of the inhabitants in large urban agglomerations. We propose and realize, together with the authorities, coherent environmental strategies and policies. We advocate for the introduction of the bicycle as an alternative means of transport, for the reduction of energy consumption, for the use of renewable sources and green technologies, for the implementation of selective waste collection systems, for environmental awareness and education in schools. How do we do that? We act in two directions: First direction: we are doing projects that are responsible for environmental and education issues. The projects are done with the support of the sponsorships received from the companies as well as the funds attracted from the donations of the individuals. The second direction: we offer support and we are involved in a permanent dialogue with the authorities in order to improve the policies and the environmental strategies. to stay ? We spend most of our lives in cities, and the health of our cities is our health. We believe that rebuilding a city on green principles is a priority for both citizens and authorities. Ecology means evolution, it means life healthier and happier for us and our descendants.www.greenrevolution.roScited as? The average car speed in traffic in the capital is 10 km / h, according to the data of the Municipal Agency for Energy Efficiency and Regulation in Bucharest, and the average speed of cycling, registered by the I Velo application in the Bike2Work campaign, is 11.82 km / h. The average bike trail in Bike2work was 6.67 km, bicyclists pedaland on average at least 33 minutes each day. Average km accumulated between May 18th and September 11th of women is 28,417 km, compared to 102,034 km for men. A woman pedals an average of 5.79 km / day, and a male 6.99 km / day. The average speed for men is 12.44 km / h, while for women it is 10.13 km / h.END # primary .site-mainEND # content. Site-contentOrganizers * / Ran 146 queries 1.39 secondsEND bodyEND html
 WHOLE PROJECT MARK