PROJECT NAME: Wikimapia
PROJECT SOURCE: P2P Value directory
---------------------------------------
NEW PAGE: 

Chandoli Dam
===============================

Chandoli Dam

 The map created by people like you! 

                	        Chandoli Dam

 India  /
                             Maharashtra  /
                             Malkapur  /

 World 
                  /  India 
                        /  Maharashtra 
                                /  Malkapur 

	                                World                            / India                            / Maharashtra                            / Kolhapur                 		 

 dam   

                     Add category

                     Upload a photo

            Possibly the world's first soil dam. Work was started in 1976. Used for agricultural purposes only although a small electricity generation plant also runs besides. The dam is built on the Varna river which forms the boundary between Sangli and Kolhapur districts. The back waters for the dam form the refuge for the Chandoli National Park.  
This dam is very old. The villages near the dam are aarala, kokrud, shedgewadi.The route is like karad-shedgewadi-arala-chandoli.it is nearly 50 kms away from karad.iIt is small one dam.there is a sanctuary spot.  
 india-wris.nrsc.gov.in/wrpinfo/index.php?title=Chandoli... 

 Wikipedia article:   http://en.wikipedia.org/wiki/Chandoli_National_Park 

 Nearby cities: 
 Islampur ,                          Kolhapur ,                          Ashta 

 Coordinates:                  17 8'10"N   73 51'42"E 

 Comments 

 patil dattatraya (guest) 

                              This dam is very old. The villages near the dam are mandur, aarala, kokrud, shedgewadi.The route is like karad-shedgewadi-arala-mandur-chandoli.it is nearly 50 kms away from karad.iIt is small one dam.there is a sanctuary spot. This dam  
is five doors, 1st door is open for canal, this water is use for farmer.This dam nearly 3 kms away from mandur village. Mandur is a beautiful city. In mandur beautiful temple of malaidevi.

 10 years ago 

 | 
 reply 

 | 
 hide comment 

 D.S.Patil (guest) 

                              Is the best dam in the world 

 10 years ago 

 | 
 reply 

 | 
 hide comment 

 Vasant hari shindewadkar  (guest) 

                              CHANDOLI DAM NAME IS VASANTSAGAR PROJECT BUT ITS RIGHT   LEFT SIDE CANNOL WORK IS STILL PENDING IN SOMEWHERE GOVERMENT SHOULD COMPLETE IT AS FAST AS POSSIBLE I REQUEST HONORABLE MINISTERS LOOK INTO THE MATTER SERIOUSLY   HELP THE FARMERS (BALIRAJA)   ALSO INSTALLED ELECTRICTY PROJECT LIKE KOYNA VIDYUT PRAKALP   TRY TO CLOSE THE LOAD SHEDDING PROBLEM OF KOLAPUR   SANGLI DISTRICT INSOME PERCENT.  

         ENERGY IS REQUIREMENT OF OUR NEW GENERATION SHOW THEM LIGHT NOT 
                                   DARKNESS 

VASANT HARI SHINDE       9819571681

 10 years ago 

 | 
 reply 

 | 
 hide comment 

 mahesh shivajatak (guest) 

                              it near in 32 shirala ahead 45 km at near of sagar patil home (manadur) 
i am mahesh.sagar is my friend also santosh kale(kalu)my home in shirala

 9 years ago 

 | 
 reply 

 | 
 hide comment 

 Akshay yesale (guest) 

                              Chandoli dam is beautiful place in maharashtra. and world 1st soil dam.

 6 years ago 

 | 
 reply 

 | 
 hide comment 

 shrikant patil malewadi (guest) 

                              chandoli is very attractive dam in the  all india. i think it is 1st soil dam. 

 6 years ago 

 | 
 reply 

 | 
 hide comment 

 sachin mahind (guest) 

                              Chandoli dam is beutiful place in maharashtra. and world 1st soil dam. This dam is very old. The villages near the dam are mandur, aarala, kokrud, shedgewadi

 6 years ago 

 | 
 reply 

 | 
 hide comment 

 akash and vicky (guest) 

                              chandoli is very very beutiful   old dam . 
it is only soil dam made in india...... 

 6 years ago 

 | 
 reply 

 | 
 hide comment 

 sachin bhosale (guest) 

                              Tha dam is very beautifull and very nice dam.This dam is very old.Tise is very beautifull place.

 6 years ago 

 | 
 reply 

 | 
 hide comment 

 Sachchidanand (guest) 

                              What is capasity chandoli dam?

 6 years ago 

 | 
 reply 

 | 
 hide comment 

 PRAKASH N. MUTAL (guest) 

                              CHANDOLI DAM IS VERY BEAUTIFUL   VERY NEAR FROM UKUL VILLAGE   THE VILEGIARS IS VERY GOOD PEPOLE.IN UKUL VERY GOOD TEMPLES   GOD SHIVS MATH .

 6 years ago 

 | 
 reply 

 | 
 hide comment 

 VITAL S. PATIL (guest) 

                              APKO AGAR DAM DEKHNA HAI TO VTAL VADAM KO PHONE KIJIYE WO HAR WAQT APKO WAHA PAR UPASTHITH MILEGA UNKA NUMBER HAI - PLEASE CONTACT FOLLOWING NUMBER - 09004958385

 6 years ago 

 | 
 reply 

 | 
 hide comment 

 Santosh Patilkarad (guest) 

                              Chandoli Dam Is aVery nice dam His Called "VASANTSAGAR" 

 6 years ago 

 | 
 reply 

 | 
 hide comment 

 anand dhawle (guest) 

                              chanoli dam is god gift to the villages near the damp. the water is very useful for villages. 

 6 years ago 

 | 
 reply 

 | 
 hide comment 

 dr.  neeta bhosale (guest) 

                              awesum dam...wit scenic beauty!

 6 years ago 

 | 
 reply 

 | 
 hide comment 

 mahesh p.... (guest) 

                              My village name is mandur  

And i m near the chandoli dam only 1 km

 2 years ago 

 | 
 reply 

 | 
 hide comment 

 Pravin Sutar 

                              chandoli dam is very nice . its other name is vasant sagar .its very nice surrounding with nature's beauty . and my village name is karungli

 2 years ago 

 | 
 reply 

 | 
 hide comment 

 Show all comments 

 Add comment for this object 

  Your comment: 

 Similar places 
 Nearby places 
 Nearby cities 

 Dhom Dam   99 km 
 Bhatghar Dam and Yesaji Kank Lake   122 km 
 Panshet Dam / Tanaji Sagar Lake   144 km 
 Khadakvasla Lake   147 km 
 Varasgaon Dam / Baji Pasalkar Lake   148 km 
 Mulshi Dam Reservoir   169 km 
 Pavana  Dam   181 km 
 Ghod Dam   191 km 
 Thokarwadi Dam   206 km 
 Barvi  Reservior   239 km 

 marking by Prakash Wadam {Ukhalu}   3.1 km 
 Hutatma Nagar Campus (sp)   3.7 km 
 Chandoli National Park   7.3 km 
 Prakash Anandrao Gaikwad (Gavandi) Mines   7.4 km 
 Ninai sahkari sakhar karkhana, Karungli, Tal: Shirala, Dist: Sangli   7.9 km 
 Vasant Saagar (Chandoli Backwaters)   8.5 km 
 Shirala Taluka   10 km 
 Shahuwadi Taluka   20 km 
 Patan Taluka   24 km 
 Sangameshwar Taluka   25 km 

 Islampur   41 km 
 Kolhapur   58 km 
 Ashta   60 km 
 Ichalkaranji   76 km 
 Miraj   86 km 
 Parbhani   387 km 
 Tandur   392 km 
 Jalgaon   467 km 
 Armoor   502 km 
 Khandwa   585 km 

 marking by Prakash Wadam {Ukhalu} 
 Hutatma Nagar Campus (sp) 
 Chandoli National Park 
 Prakash Anandrao Gaikwad (Gavandi) Mines 
 Ninai sahkari sakhar karkhana, Karungli, Tal: Shirala, Dist: Sangli 
 Vasant Saagar (Chandoli Backwaters) 
 Shirala Taluka 
 Shahuwadi Taluka 
 Patan Taluka 
 Sangameshwar Taluka 

 Languages:  
 en 
 hi 

 This article was last modified 1 year ago 

 Post comment 

 or continue as guest 

 Wikimapia username 

 Your name 

 Please enter your name 

Wikimapia - Let's describe the whole world!
===============================

Wikimapia - Let's describe the whole world!

 About Wikimapia ,
               All countries ,
               USA ,
               Canada ,
               UK ,
               Australia ,
               New Zealand ,
               Germany ,
               Switzerland ,
               Italy ,
               France ,
               Spain ,
               Russia ,
               India ,
               Brazil  ...
               Tags directory ,
               Last adds ,
               Tags page 2 ,
               Tags page 3 ,
               Tags page 4 ,
               Tags page 5 ,
               Tags page 6 ,
               Tags page 7 ,
               Tags page 8 ,
               Tags page 9 ,
               Tags page 10  ...
               Google+ 

                  Wikimapia is an online editable map - you can describe any place on Earth. Or just surf the map discovering tonns of already marked places. Loading map... We recommend to use a new browser, Firefox is preferrable.

Wikimapia - Let's describe the whole world!
===============================

Wikimapia - Let's describe the whole world!

 About Wikimapia ,
               All countries ,
               USA ,
               Canada ,
               UK ,
               Australia ,
               New Zealand ,
               Germany ,
               Switzerland ,
               Italy ,
               France ,
               Spain ,
               Russia ,
               India ,
               Brazil  ...
               Tags directory ,
               Last adds ,
               Tags page 2 ,
               Tags page 3 ,
               Tags page 4 ,
               Tags page 5 ,
               Tags page 6 ,
               Tags page 7 ,
               Tags page 8 ,
               Tags page 9 ,
               Tags page 10  ...
               Google+ 

                  Wikimapia is an online editable map - you can describe any place on Earth. Or just surf the map discovering tonns of already marked places. Loading map... We recommend to use a new browser, Firefox is preferrable. 

 Wikimapia is a multilingual open-content collaborative map, where anyone can create place tags and share their knowledge. The goal is to describe the whole world by compiling as much useful information about all geographical objects as possible, organize it and provide free access to our data for public domain. 

Wikimapia is a multilingual open-content collaborative map, where anyone can create place tags and share their knowledge. The goal is to describe the whole world by compiling as much useful information about all geographical objects as possible, organize it and provide free access to our data for public domain.
 WHOLE PROJECT MARK