Sahaja Samrudha Home Page
===============================

 
   
    Sahaja Samrudha Home Page
===============================

 
   
    Sahaja Samrudha About Us
===============================

 
   
 Home  
                   I       About 
              Us       I      Desi 
              Rice      I      Millet 
              Magic      I      Sahaja 
              Organics     I    
                Sahaja 
              Seeds  
                  I      Publications 
      I                   Events      I     
 Support Us 
 &quot;Sahaja Samrudha proudly 
              proclaims to have motivated many towards the organic path&quot; 
 Sahaja 
              Family 
 Sahaja 
              Broucher 
 Awards 
               
 Sahaja 
                  Samrudha  
                  or Bountiful Nature, a brainchild of a group of organic farmers 
                  was born over a decade ago mainly out of concern to protect 
                  our mother earth. Sahaja Samrudha started as a farmer initiated 
                  to exchange ideas, seeds and share knowledge on sustainable 
                  agriculture. The formation of Sahaja Samrudha was the culmination 
                  of their individual efforts into a more exciting and powerful 
                  force to make sustainable agriculture a way of life of the farming 
                  community. Sahaja Samrudha has spread out its network on publications, 
                  workshops & trainings, organising different melas and on marketing 
                  in order to encourage more farmers towards organic farming. 
   
 Seed Diveristy 
                  of Karnataka 
 Paddy Diveristy  
 700  Traditional 
                    paddy varieties conserved 
 8000  Farmers are networked 
 1500  acres cultivating paddy varieties 
 Millet Diversity 
 68  Traditional millet varieties 
                    conserved  
 300  farmers are networked  
 250  acres cultivating millet varieties 
  Objectives of Sahaja 
  To promote sustainable agriculture and create 
                              awareness on the need to conserve natural resources 
                              and traditional knowledge systems  
 To conduct on-farm research and standardize sustainable 
                              agriculture practices  
 To capacitate Farmers, Panchayat representatives, 
                              Non government organisations, Government Officials 
                              and Policy planners on sustainable agriculture and 
                              natural resource management  
 To assist in implementation of sustainable farming 
                              techniques to farmers and grassroots organizations, 
                              in the process of converting their land into organic 
                              farms,  
 To disseminate information, research outcome, 
                              knowledge and thought on sustainable agriculture 
                              and natural resource management through publications 
                              and audio/visual materials  
 To facilitate procurement, marketing and sales 
                              of organically produced products 
   
                     
   
   
    Sahaja Samrudha Awardees
===============================

 
 Awards 
 G. Krishna Prasad 
 Awards: 
 State Level Awards 
  
                           1. Best 
                  Environmental Writer 
          2. 
                  Best Agricultural journal -  'Beeja' 
                    Written 
                  by G. Krishna Prasad and Published 
                   
         by 
                  Kannada Pustaka Pradikara   
   
   
 Anitha Reddy  
 Award:  
                    Asia Level Award  
                    Best Rice Jouranalist Award 2010  
 Given 
                    to an article 'Paddy that survives the flood' written by Anitha 
                    published in Deccan Herald. 
 Click 
                    here to view article 
 Ghani 
                  Khan 
 Award:  State 
                  Level Best 'Organic Farmer'  
 
                  - A young farmers organically grown 156 varieties of Rice in 
                  his Tippu Sulthan period Mango Trees plot. 
   
 Awards for Pastoralists 
                  and Livestock Keepers for in-situ conservation of Local Livestock 
                  Breeds - given by LIFE Network 
         Lingappa 
                  - Koppala                    
                                     Siddappa 
                  - Chamarajanagara 
   
                   
                   
Sahaja Samrudha Group
===============================

 
 Back 
            to About us 
 Sahaja Group 
   Sahaja 
          Advisors               Sahaja 
          Volunteers               Sahaja 
          Team 
 Sahaja 
                Trustees  
 Krishna 
                  Prasad 
 Director   
   
 N. 
                  R. Shetty 
 Director   
 Nagesh 
                  Hegde 
 Trustee   
   
 Dr. 
                  H. R. Prakash 
 Trustee   
 Anitha 
                  Reddy 
 Trustee   
   
 Shivanapura 
                  Rameshm 
 Trustee   
 M. 
                  Lingamadiah 
 Trustee   
   
 T. 
                  D. Ramakrishna 
 Trustee   
 H. 
                  A. Prakash 
 Trustee   
   
 Satish 
                  Natarajan 
 Trustee   
 G. 
                  Krishne Gowda 
 Trustee   
   
   
   
   
   
 Sahaja 
                Advisors  
 1.  Nagesh 
                  Hegde    
 2. Usha 
 3. Chandra Kumar 
 4. Prathap Hegde 
 5. Govinda Kabadi 
   
 Sahaja 
                Volunteers  
 1.  Manohar 
                  Shenay  - Co-ordinates certification and marketing 
                  linkages 
 2. M.H. Manjunath  
                  - Research oriented activities are efficiently handled and actively 
                  involved in all other activities 
 3. Somesh  
                  - Though working in MLC helps us in maintaining ongoing accounts 
 4. Anandatirtha Pyati  
                  - A journalist, helps in bringout publications 
 5. Prakash  
                  - Also our trustee, supporting us by letting his prominant premises 
                  for marketing organic food. 
 6. Satish Natarajan  
                  - One of our trustee, backing us by linking us to sponsors and 
                  supporters      
 7. Saraswathi  
                  - Guides us in managing office and marketing produce 
 8. Rekha Sampath   
                  - A freelance journalist, documents our ongoing activities  
                  and also in conserving local seeds 
 Sahaja 
                Team  
 1.  Manjunath 
 2. Shiva Putra 
 3. Tejesh Kumar 
 4.  Manjunath 
                      Tippur  
                      5.  G. 
                      Sreemathi (Seema) 
 6.  G. 
                      Krishna Prasad 
                      7. 
  
                      M. Anitha   
                      8.  Anil Kumar 
                      9.  Shantha Kumar 
 Anil Kumar  (second from right) is our gem. Though physically 
                  he is not with us, many rare and almost extinct millets and 
                  vegetable seeds that he passionately collected and carefully 
                  multiplyed are mounting. We dedicate all the credit to his soul. 
                  We can't forget you Ani.... 
 Top 
Sahaja Samrudha Millet Magic
===============================

 
   
   
 Home  
                   I       About 
              Us       I     Desi 
              Rice      I      Millet 
              Magic      I      Marketing  
                  I      Events  
                  I      Publications 
      I     
               Sahaja 
              Seeds        I     
 Support Us 
   
 &quot;I 
                    support organic farming and traditional seed conservation 
                    activities of Sahaja&quot;   Ramesh 
                    Bhat, Popular actor, Kannada Film Industry 
   
 &quot;Organic 
                    foods are best for our health&quot;    
 V. Manohar, 
                    Famous Music Director, Kannada Film Industry 
   
 Millets, Future 
                    of Food & Farming   
 Millets are amazing in 
                    their nutrition content. Each of the millets is three to five 
                    times nutritionally superior to the widely promoted rice and 
                    wheat in terms of proteins, minerals and vitamins. 
 Nutrient Content of Millets 
 Crop / Nutrient      Protein(g)      
                    Fiber(g)      Minerals(g)      Iron(mg) 
                         Calcium(mg)  
                      Pearl millet              10.6 
                                 1.3 
                                  2.3 
                                   16.9                 
                    38 
                      Finger millet              7.3    
                               3.6 
                                 
                    2.7                  
                    3.9                
                    344  
                      Foxtail millet            
                    12.3                8 
                                  3.3 
                                     2.8 
                                     31 
                     
                      Proso millet             
                    12.5              
                    2.2              1.9 
                                    
                     0.8                  14 
                     
                      Kodo millet              8.3                 
                    9               2.6 
                                    
                     0.5                  27 
                     
                      Little millet               
                    7.7               7.6 
                                 
                     1.5                  9.3                  
                    17  
                      Barnyard millet       11.2 
                                10.1 
                                 4.4 
                                    15.2 
                                    11 
   Rice                         6.8 
                                  0.2 
                                 0.6 
                                      0.7 
                                    10 
                     
                      Wheat                    11.8 
                                  1.2 
                                 1.5 
                                      5.3 
                                    41 
                     
   
  Initiatives for revival and promotion 
                    of Millet diversity in Karnataka  
 Millet 
                    is one of the oldest foods known to humans and possibly the 
                    first cereal grain to be used for domestic purposes. Millet 
                    has been used in Africa and India as a staple food for thousands 
                    of years and it was grown as early as 2700 BC. In China where 
                    it was the prevalent grain before rice became the dominant 
                    staple. There is a mention in Bible that millets during those 
                    times were used to make bread. It is documented that the plant 
                    was also grown by the lake dwellers of Switzerland during 
                    the Stone Age.  
 Millets 
                    and rainfed agriculture Rainfed agriculture plays an important 
                    role in Indian economy, as 68 percent of total net sown area 
                    (136.8m.ha) comes under rainfed, spread over 177 districts. 
                    Rainfed crops account for 48 percent area of food crops and 
                    68 percent area of non-food crops. Nearly 50 percent of the 
                    total rural workforce and 60 percent of livestock in the country 
                    are concentrated in the dry districts.  
 Karnataka 
                    has the highest proportion of drought prone area among all 
                    major states in the country and is the second largest area 
                    of dryland in the country after Rajasthan. The land resources 
                    of Karnataka especially its dry drought prone lands that comprises 
                    more than 79% of the total arable area, have been poorly managed 
                    by the resource poor farmers of the state. The total irrigation 
                    potential from all sources, including inter basin transfers, 
                    is estimated at around 50 % of the total cropped area of 104.89 
                    lakh hectares by the Karnataka state land use board. The remaining 
                    land has to depend on rain fed farming forever.  
 Reasons 
                    for losing the millet diversity 
 1. 
                    Introduction of HYV's  
                    2. Shift from cultivating traditional millets to maize and 
                    sunflower  
                    3. Processing problem  
                    4. Changing Food habits  
                    5. Lack of market support 
                    6. Departments and scientists Neglected millets and lack of 
                    promotional activity 
                    7. Irratic rainfall 
                    8. Lack of value addition 
 Sahaja Initiative 
 Goal 
                     
                    Popularization of millet based multicropping system in rainfed 
                    areas of Karnataka  
 Objectives 
                     
 
                    - Documentation and on-farm experimentation of millet based 
                    multicropping systems  
                    - To develop human institutions with skills by providing technical 
                    support on Millet production systems 
                    - Sensitizing media to provide publicity for millet culture 
                     
                    - To facilitate procurement, marketing and sale of organic 
                    millet  
  Conservation 
   
                             
 Millet 
                                diversity mapping of Karnataka 
 Together with 30 other organizations including 
                                consumer and farmer groups, Sahaja Samrudha has 
                                built a movement that today includes  200 
                                rice-conservers    from  20 
                                districts , conserving more than 
 68 varieties 
 of minor and major millet diversity. 
 Through an attempt to coordinate the "Millet 
                                network of India", we intend to reach out to like-minded 
                                people - from farmers to consumers, policy makers 
                                to media and scientists to students - in the struggle 
                                to save millet systems. We invite you all to be 
                                a part of the network and work together for rejuvenating 
                                millet heritage for our future.  
   
                           
   
   
                     
 Know more in ' Millet 
                    in your meals ' publication 
                    Millet Leaflet in kannada-  Leaflet 
 Articles 
 Hungry 
                    India can depend on millets 
                    Millets, the answer to the India's food security: say food 
                    scientists  
 Chikkadadaru 
                    doddadu 
                    Jola  
 Adhika 
                    bedikeya truna dhanyagalu 
 Posters  
 Top 
   
    Sahaja Samrudha Desi Rice
===============================

 
   
   
 Home  
                   I       About 
              Us       I     
 Desi Rice      I      Millet 
              Magic      I      Marketing  
                  I      Events  
                  I      Publications 
      I     
               Sahaja 
              Seeds        I     
 Support Us 
 Red Rice Varieties 
 ----------------------------------------------------------------------------------------------------- 
 'Rice 
                  is life' to people throughout Asian. Rice is the cornerstone 
                  of our food system, culture, rituals and traditions. Many in 
                  the present generation are not aware of diversity of rice that 
                  we have. India had two lakh varieties of rice before Green Revolution. 
                   
 Now 
                    only 30,000 varieties are there in our gene banks. Over the 
                    centuries, rice has shaped the cultures and dietary habits 
                    of people, both cultivators and consumers. Rice is the principal 
                    crop grown in India, and much of the crop is used to feed 
                    the domestic population. Indian farmers, over the centuries 
                    have selected and cultivated thousands of varieties of traditional 
                    rice.  
 Karnataka 
                    is blessed with a rich culinary heritage. It has a diversity 
                    of cuisines based on regional specialties and traditional 
                    dishes of each community. Regional food habits differ vastly 
                    depending on locally available ingredients; the result is 
                    a richly varied spread. Karnataka's cuisine is characterised 
                    by distinct textures, flavours and tastes. The state's vast 
                    culinary repertoire encompasses the earthy flavours of North 
                    Karnataka, the traditional fare of South Karnataka, the spicy 
                    dishes of the coastal region and the distinctive Kodava cuisine. 
                     
 It 
                    has a diversity of rice cuisines based on regional specialties 
                    and traditional dishes of each rice variety. Besides rice 
                    having nutritional and medicinal benefits, the by-products 
                    of rice are equally important and beneficial. Despite its 
                    importance as a staple food, interest in its health benefits 
                    has only recently attracted attention. Laboratory studies 
                    have shown that rice products have anti-cancer properties 
                    and the potential to treat other conditions such as diabetes, 
                    kidney stones and heart disease.    
 Save Our Rice Campaign 
 Save Our Rice Campaign is a people's movement 
                                to protect traditional rice cultures and knowledges 
                                across Asia. Thanal is the main programme secretariat 
                                of Save our Rice Campaign and coordinates the 
                                campaign in South India, West Bengal and Orissa. 
                                It partners with CREATE (Tamil Nadu), Sahaja Samrudha 
                                (Karnataka), Living Farms (Orissa) and Save Our 
                                Rice-West Bengal (West Bengal).  
 Sahaja Samrudha coordinating the movement in 
                                Karnataka to revive traditional rice heritage 
                                through the on-farm conservation of rice diversity, 
                                participatory crop improvement, and the popularization 
                                of organic rice.  
   
                             
 Medicinal Rice Varieties 
 ----------------------------------------------------------------------------------------------------- 
  Conservation 
   
                             
 Rice 
                                diversity mapping of Karnataka 
 Together with 30 other organizations including 
                                consumer and farmer groups, Sahaja Samrudha has 
                                built a movement that today includes  2000 
                                rice-conservers   and farmer-breeders 
                                from  20 districts , 
                                conserving more than   400 
                                varieties 
 of Scented, Medicinal, Deepwater, 
                                Saline-tolerant and Dry land rices .  
 Through an attempt to coordinate the "Save Our 
                                Rice Campaign", we intend to reach out to like-minded 
                                people - from farmers to consumers, policy makers 
                                to media and scientists to students - in the struggle 
                                to save rice systems. We invite you all to be 
                                a part of the network and work together for sustaining 
                                rice and our future.  
   
                           
   
   
                     
 Daily Rice Varieties 
 ----------------------------------------------------------------------------------------------------- 
   Know more in ' Anna 
                      Tinni ' publication 
                      Paddy Conservation Leaflet in kannada-  Leaflet 
 Medicinal Rice Leaflet-  Medicinal 
                      Red Rice Leaflet in kannada-  Red 
                      Rice 
 Articles 
 Return 
                      of Desi Rice   
 A 
                      Local Chain- article farming matters, June 2013 
 Desi 
                      akki 
 Along 
                      the Varada'a course 
                      Japnese paddy art at Anjaneya rice field 
                      Lessons in times of drought  
                      Paddy that survives the flood 
 Posters  
 Email: saveourrice@gmail.com 
 Top 
   
    Sahaja Samrudha Publication
===============================

 
 Home  
                   I      About 
              Us       I      Desi 
              Rice      I      Millet 
              Magic      I      Marketing  
                  I      Events  
                  I     
 Publications 
                    I     
               Sahaja 
              Seeds        I     
 Support Us 
 Apart from extensively writing in the 
                    media on organic farmers profile, do it yourself, sharing 
                    new ideas, seed info and so on. Published articles of own 
                    experiences and discoveries have been eye openers for many. 
                    Some of the main publications are: 
   
 Millet Calendar  2016 -  A path to good health!  - In order to fortify our traditional food system and easily include the high
                        fibre food into our daily diet, &lsquo;Millet Calendar 2016&rsquo; a unique and the first of its kind is brought out with efforts of Sahaja Samrudha, an
                        organic farmers association of Karnataka. The calendar looks at the kind of foods the body is most comfortable with and explores the most appropriate
                        ways of consuming such foods. It journeys with you to look at the benefits
                        of millet, and some delicious recipes that linger in your mouth. 
 NETTIRAGI  -  a booklet about farmer innovation of finger millet cultivation written by Mallikarjuna Hosapalya, Transcription by Anitha Reddy, published by
Sahaja Samruddha 
 Second 
                        Edition 
 Anna Tinni...!  - a booklet about rice history, food system and health 
                        by Dr. Satyanarayan Bhat and Dr.H.S. Prema. 
 Varadeya 
                        Vadalina Haadu Paadu 
 Krushi Samskruthi Adyayana 
 -a fact book on agriculture, 
                        people, culture and climatic conditions of people based 
                        in the bank of Varada River. Jointly edited by Vishwanath 
                        Anekatte and Shantha Kumar. 
 'Savayava 
                        Drudeekarana - Krushi marukatteya hosa bharavase'  
                        - a guidance book on organic agriculture certification, 
                        written by Vasudeva Adamaru. 
   
   
 Second 
                        Edition 
                        'Abhivruddhi Rathada Chakradai Sikki Biddavaru'  
                        - a transcription of Dr. Devendra Sharma's talk. Transcripted 
                        by Nagesh Hegde, Senior Journalist. 
   
   
 ' Ten 
                        steps towards organic farming ' both in English 
                        and Kannada - 2nd Edition 
                        A good guide on organic farming for farmers who are coverting 
                        their farm to organic. 
   
   
 '' Sahaja 
                        Samrudha Saagi Banda Dari ' - introduction to 
                        Sahaja Samrudha - organic farmers association of Karnataka, 
                        Compiled by K.Rekha Sampath  
   
   
 &quot; Akkare 
                        Akki Bhalire Batha ! &quot;- A book on rice 
                        written by Nagesh Hegde, Senior Journalist, published 
                        by Save our Rice Campaign and Sahaja Samrudha. 
   
   
 &quot; Allanirina 
                        Batha - Varadeya Madilina Achchari &quot; - 
                        A book on deep water rice edited by G. Krishna Prasad, 
                        Poornapraganya Bellur and Raghunandana Bhat, published 
                        by Save our Rice Campaign and Sahaja Samrudha. 
   
   
 ' Shatasrungada 
                        salinalli.... ' Anand Pyati's collection of 
                        his own articles on organic farming is framed to a publication. 
                         
   
   
 ' Velvet 
                        Beans - Nelakke Jeeva Tumbuva Magic Balli ' 
                        - Farmers experiences, articles and benefits of a green 
                        manure plant - Velvet bean is documented by Ganadhalu 
                        Srikanta, Jouranalist  
   
 &quot; Batha 
                        - Baridaguthiruva Annada Battalu &quot; - A 
                        book on rice culture, cultivation and politics, written 
                        by Mallikarjuna Hosapalya, published by Save our Rice 
                        Campaign and Sahaja Samrudha. 
   
 &quot; Tadrupi 
                        Kaadu-  Anna koduva ananya toota &quot; - A book 
                        on cultivation of Analog Forestry written by Krishna Prasad 
                        and Shivananda Kalave 
   
 &quot; BTge 
                        Ottu - Badanege Kuttu-  Naati Badanege odagida kantaka &quot; 
                        - A book on Local Brinjal Diversity &amp; culture and 
                        affects of BT brinjal written by Krishna Prasad and Anand 
                        Pyati published by Save our Rice Campaign, Sahaja Samrudha 
                        and Bhoomi  
   
 &quot; Savayava 
                        Sambrama -  Krishikarigondu Sarala Kaipidi&quot;  - 
                         A book for organic farming 
 starters  by 
                        Ravi.R Vishwanathapura Published by Sahaja Samrudha  
 ____________________________________________________________________ 
                        'Abhivruddhi Rathada Chakradai Sikki Biddavaru'  
                        - a transcription of Dr. Devendra Sharma's talk. Transcripted 
                        by Nagesh Hegde, Senior Journalist. 
 ____________________________________________________________________ 
                        'SRI'  - Madagaskar way 
                        of rice cultivation 
 ____________________________________________________________________ 
 Top   
 Sahaja 
        Samrudha  - 'Nandana', No.7, 2nd Cross, 7th Main, Sulthanpalya, 
        Bangalore - 560 032, Karnataka, India 
                                               Phone: 
        +91 80 2365 5302       Mobile: (0)9742428853 
             Email: sahajasamrudha@gmail.com 
   
Sahaja Samrudha Marketing
===============================

 
   
   
 Home  
                   I       About 
              Us       I   
                 Desi 
              Rice      I      Millet 
              Magic      I      Marketing  
                  I      Events  
                  I      Publications 
      I   
                 Sahaja 
              Seeds        I     
               Support 
              Us   
   
 Sahaja 
                        Samrudha has developed a connectivity network of consumers 
                        and producers for procurement and marketing under the 
                        brand name "Sahaja Organics". Sahaja Samrudha Organic 
                        Producer Company Ltd. has formed to market organic produce. 
                        Farmers find it difficult to market their organic produce 
                        and Sahaja Samrudha organic producers company ltd., is 
                        a platform for them to exhibit and sell their produce 
                        with a good price ear marked.  
    
 www.sahajaorganics.com 
                           
 The 
                        produce is procured directly from the farmer and Sahaja 
                        Samrudha Producer company supplies it to the network outlets. 
                        This chain has been created for the produce to reach the 
                        consumer directly.  
 As 
                          Karnataka doesn't have an exclusive market to sell their 
                          organic produce, resulting in them ending up in a common 
                          market thereby defeating the whole purpose. Farmers 
                          find it difficult to market their organic produce and 
                          Sahaja Samrudha Producer company is a platform for them 
                          to exhibit and sell their produce with a good price 
                          ear marked.  
   
 Sahaja 
                    Organics being organic food specific has created an efficient 
                    supply chain management for organic products. "Sahaja Organics" 
                    works in the wake of providing chemical free, delicious, wholesome 
                    and healthier organic food, at affordable cost to one and 
                    all. 
 Sahaja 
                    Samrudha Producer company has created a network of organic 
                    outlets in different areas of Bangalore, Shimoga, Mysore, 
                    Davanagere, Tumkur, Channapatna and Dharwad districts of Karnataka. 
                    Company has enhanced the capabilities of these outlets on 
                    strategies of procurement, marketing, quality maintenance, 
                    eco friendly packaging, distribution and most importantly 
                    clientele management.  
   Organic bazaars are established 
                    in WIPRO and Indian Institute of Sciences premises, Bangalore. 
 Farmer Markets are established at 
                    various district at Mysore, Shimoga, Dharwad,etc., 
 Top   
   
    Sahaja Samrudha Home Page
===============================

 
   
    Sahaja Samrudha Support Us
===============================

 
   
   
 Home  
                   I       About 
              Us       I      Desi 
              Rice      I      Millet 
              Magic      I      Marketing  
                  I      Events  
                  I      Publications 
      I     
               Sahaja 
              Seeds      I     
               Support 
              Us 
 Our goal is to revive 
                    and rejuvenate our dying villages 
 Sahaja 
                    Samrudha is more than just an NGO, it is a People's movement 
                    to preserve India's traditional farming practices and conserve 
                    the rich biodiversity of indigenous crop varieties.  
 Come; 
                    join us in our initiatives to transform the rural agricultural 
                    communities.  
 Donations 
                    to Sahaja Samrudha are deductable under section 80G of the 
                    Indian Income Tax Act 1961  
                    Send DD/Cheque in favor of 'Sahaja Samrudha' payable at Bangalore. 
                     
 
                    Online payment Sahaja Samrudha, A/C No: 106501011000203, Vijaya 
                    Bank, Ganganagar Branch, Bangalore RTGS / NEFT IFSC: VIJB0001065 
 Contact Us 
 Sahaja 
                                Samrudha,  
                                'Nandana', No-7, 2nd Cross, 7th Main, 
                                Sulthanpalya, Bangalore - 560032  
                                Ph: 080 2365 5302 
                                Email: sahajasamrudha@gmail.com  
                                www.sahajasamrudha.org  
    
   
    Sahaja Samrudha Events
===============================

 
   
   
 Home  
                   I       About 
              Us       I     
               Desi Rice  
                  I      Millet 
              Magic      I      Marketing      I       Events 
      I      Publications        I   
                 Sahaja 
              Seeds        I      Support 
              Us   
   
 pro SEED Now   
                    Biodiversity and organic food festival 
   
 Opening 
                    of  
                    DESI FOOD STORE  
   @ No 
                    80, 4th stage, Akshay Clolony, Hubli on 26th Feb 2014 
 The astounding varieties of Rice, Millets, 
                    Vegetables, Fruits and value added products is being brought 
                    from all corners of Karnataka. From tasty organic foods and 
                    snacks to traditional grains, dal, fresh greens and fruits. 
                         
                    The  Nature Store  is a platform to link organic farmers 
                    and consumers.  
                    Enjoy the goodness of Safe Food and be a part of the movement. 
                     
 For more details contact: 9538691868 and 9739384020  
                    NATURE STORE IS AN INITIATIVE OF SAHAJA SAMRUDHA and DESHPANDE 
                    FOUNDATION   
   
 Organic Seed Production 
                    National Workshop    
 Bengaluru Seed Festival 
 -  28th and 29th September 2013 
 Seed 
                    is the keystone element of our entire agricultural system. 
                    India is known for its rich cultural heritage, traditional 
                    wisdom and seed diversity. Our immense crop diversity has 
                    its own uniqueness that can adapt to evolving agro-climatic 
                    conditions. But it took only few decades after &lsquo;Green revolution&rsquo; 
                    to supplant our indigenous crops with improved/hybrid/GM crops 
                    endangering the entire agro-ecosystem and sustainability of 
                    millions of livelihoods dependent on farming.  
 The 
                    overall aim of this festival is to create awareness among 
                    the masses about the traditional seed diversity and support 
                    the conservation efforts of seed savers. More 1500 varieties 
                    of traditional crop seeds brought by 200 seed savers and farmers 
                    from different states will be displayed. 
 Table showing details of different mela's(fairs) organized and sales  during 2010-2013 
                         Year  
 Purpose 
 Place 
 No. of Days 
 Sale Details (Lakh) 
 2010 
 Red Rice Mela 
 Bangalore 
 2 
 2 
 2010 
 Millet Mela 
 Bangalore 
 2 
 1.75 
 2011 
 Savayava  Santhe 
 Bangalore 
 3 
 4 
 2011 
 Millet Mela 
 Mysore 
 2 
 1.5 
 2011 
 Red Rice Mela 
 Bangalore 
 2 
 .5 
 2012 
 Millet Mela 
 Shimoga 
 2 
 2.5 
 2012 
 Red Rice Mela  
 Shimoga 
 3 
 3 
 2012 
 Savayava Mela 
 Bangalore 
 2 
 2.5 
 2013 
 Red Rice Mela 
 Mysore 
 3 
 3 
 2013 
 Red Rice Mela 
 Hubli 
 3 
 5 
 2013 
 Savayava Santhe 
 Hubli 
 4 
 2.5 
 Total    Sales Amount from 2010-13 
 30.25 
 Top   
 Red Rice Mela 
   
   
   
   
 To showcase the nutritious red rice 
                    and the diversity of the red rices of the State, "Red Rice 
                    Mela" was held in Bangalore, Mysore, Shimoga and Hubli by Sahaja Samrudha 
                    in collaboration with NABARD, Save Our Rice Campaign and other like minded organisational support.  
  The popularization of red rice and inclusion 
                    of them into our daily diet is the focus of the Mela. Red 
                    rice being the store houses of nutrients are miles ahead of 
                    polished rice but still an ignored food crop. With all the 
                    benefits yet, red rice have been marginalized and they have 
                    been overlooked and many of the farmers are into cultivation 
                    of only hybrid varieties that are high in yield value. Even 
                    the government encourages the distribution and cultivation 
                    of these hybrid rices that don't contain any nutrition in 
                    them.  
 The mela addressed some of the issues pertaining to 
                    the neglect of the crop diversity. During these mela the exhibition of about 150 
                    traditional rices, earheads, ready to eat foods and value additions out of red rice will be sold, issue of informative leaflets, poster and  power point presentations and group discussions that include farmers, consumers, nutritionist, doctors, department persons, scientists and other social network persons share their views about benefits of consuming red rice in our daily life. 
 Release of few publications and release of rice calendar every year are planned during these mela's to create better awareness and to sensitise media. Best rice growers will be honored and given recongination by publishing articles. 
 Millet  Mela 
                    MILLETS BACK  IN THE MEALS&hellip; 
                     Minor  millets are small-seeded species crops, grown around the world for food and  fodder. Essential similarities of the members of this group of species are the  resilience and ability to thrive in harsh environments, along with nutritious  seed content. They have been cultivated since immemorial time. 
 Millet occupies  an important place in the food culture and ritual of the people of South  Karnataka. It is also known as poor man&rsquo;s crop because it is used as staple  food for marginalized families. Millet grains are used in preparation of  beverages, porridge, snacks, flat breads, rice, sweet, and other supplementary  food. Besides its importance in the indigenous diet, cultivation of millet  occupies a significant place in the cultural calendar of people in Karnataka.  
 Sahaja Samrudha began with popularization of millets and  inclusion of them into our daily diet. The  Millet  Mela  or the  &lsquo;Siridhanya Mela&rsquo;  organized in Bangalore, Mysore and Shimoga was keen in promotion of these most neglected crops.  
 The exhibition along with raw cereals, the mela  offered processed millet-based flakes, healthy malt powder, aata, vermicelli,  biscuits and bakery products made of ragi and various millets. and earheads.  Also, ready-foods such as papad, chakkuli, ladu, kajjaya, kolbale, biscuits are  all attracting the foodies. Besides, it has kept on display a range of  organically developed food and food products. 
 Media place a major role in popularising the mela's and spreading the godness of these millets with series of articles appear in almost all local newspapers. 
 Safe Food  Mela 
 INDIA  FOR SAFE FOOD campaign against toxic agri-inputs launched 
 Bangalore,  June 25th 2012 : Spurred by negative impacts of chemical pesticides and  other toxic inputs in our food and farming, and advocating a shift towards  ecological farming, a nation-wide mobilization campaign called INDIA FOR SAFE  FOOD was launched, steered by ASHA (Alliance for Sustainable &amp;  Holistic Agriculture). This campaign is meant to create awareness amongst  citizens about the ill-effects of pesticides to begin with, in the wake of  numerous reports on India&rsquo;s contaminated food and natural resources.  Incidentally, this was the theme picked up by the popular television  show anchored by Aamir Khan, Satyamev Jayate and activists of India For Safe  Food were part of the show. ASHA and Sahaja Samrudha announced a Safe Food Mela  in Lal Bagh on June 30th and July 1st   to kickstart the campaign in Karnataka. 
  Safe Food mela  had more than 20 organic outlets in the city set  up their stalls, in addition to a poster exhibition, petition drive, an  orientation to urban/terrace/balcony gardening, film  screening, quiz contest, organic seed display and sales, lectures etc.  
 Top 
   
    Sahaja Samrudha Sahaja Seeds
===============================

 
       
   
 Home       I       About Us       I      Desi 
              Rice      I      Millet 
              Magic      I      Marketing      I      Events      I      Publications        I    
   Sahaja 
              Seeds        I                   Support 
            Us   
 Organic  l 
                     Open pollinated  l  Public 
                    domain 
 'DESI 
                    SEED PRODUCERS COMPANY LIMITED'  
                    is registered under Companies Act 1956, with its administrative 
                    office located at Bangalore, Karnataka. It is a collective 
                    of organic seed producers and seed savers with a mission to 
                    conserve and promote landraces for more than a decade.  
 The 
                    seeds are marketed under the brand name  
                    &lsquo;Sahaja Seeds&rsquo; - high quality, organically grown, traditional, 
                    open pollinated vegetables and cereal crops seeds. Our seed 
                    producers are located across India  
                    adaptable varieties conserved by farming communities over 
                    generations. 
 'We 
                    seek to bring back the tradition of seed saving amongst us 
                    by collecting, propagating, and exchanging indigenous and 
                    rare varieties. We seek sustainable living and a more self-reliant 
                    lifestyle" 
 Organically Grown 
 Our farms 
                              are Certified Organic, adhering to NPOP- Indian 
                              Organic standards for the production of organic 
                              seed. Our mission is to grow using sustainable agricultural 
                              practices, starting with the seed, where it all 
                              begins. We nurture our crops by building rich, healthy 
                              soil that encourages all beneficial organisms. We 
                              don't use genetic modification, irradiation, sewage 
                              sludge or synthetic agrochemicals that are allowed 
                              in non-organic system that has wreaked havoc on 
                              people, planet and our economy. 
                             
    
 Open Pollinated 
 Our seed is open pollinated (OP), which means 
                                that saved seed will breed true to type and our 
                                farmers have direct access and control of their 
                                seed supply. In contrast, F-1 hybrids and GMO 
                                varieties are impossible for farmers to reproduce, 
                                leaving them dependent on seed companies for new 
                                seed. OP varieties are reproduced through natural 
                                pollination via wind or insects.  
   
                           
   
  Public Domain 
 We are foremost organic seed producers, 
                                      out to save organic seed and we want you 
                                      to do it, too. Seed industry - a handful 
                                      of large companies are in control of much 
                                      of the world's seed supply. Focusing exclusively 
                                      on developing varieties that are F-1 hybrids, 
                                      elite OP varieties, or Genetic Engineered, 
                                      thereby denying our seed sovereignty the 
                                      basis for our food supply. An answer this 
                                      problem, we're putting all of our seed in 
                                      the public domain for customers to reproduce 
                                      and improve, regionally adaptive, publicly 
                                      held and genetically resilient.  
   
                                 
 Seeds Savers 
   
  Nagappa  - Makari, Hirekeruru Taluk, Haveri 
   
                                 
 Power of millets  - 
                                      He has grown 31 varieties of millets; that 
                                      too on only two acres of land!  
 full 
                                      article 
   
                                 
   
  Syed Ghani Khan  - Kirugavalu, Mandya 
   
                           
 The real seed man  - He 
                                is conserving 567 varieties of rice, 36 varieties 
                                of millets, 143 varieties of rare mango trees 
                                and having a seed museum at his home. 
 Awards to Ghani  - Krushi Pandit-2010, Biodiversity 
                                 
 Reviving 
                                the lost legacy 
 Reviving 
                                the Lost Legacy of Rice Biodiversity   
   
                           
   
  Mukappa Pujar - Chinnikatte, Haveri 
   
                           
 Guli ragi expert  - Senior 
                                farmer consultant who has expertised guli ragi 
                                cultivation method that gives 4 times higher yield. 
 
                                Guli Ragi Method of cultivation 
   
                           
   
  Eshwarappa Banakar - Hireyadachi, Hirekeruru, Haveri 
   
                           
 Man who formed first Millet 
                                Seed Bank  - More than 70 varieties of millets 
                                and about 30 varieties of vegetables are in safe 
                                hands. 
 
                                Read story 
   
                           
  Puttraju - Byloor, 
                          Kollegal taluk, Chamrajnagar District 
   
                           
 Power of millets  - He has 
                                grown 31 varieties of minor millets and organic 
                                potatoes!  
 full 
                                article 
   
                           
  Anjaneya - Kumblur, 
                          Harihara taluk, Davanagere District 
   
                           
 Rice paddy art creator  - 
                                Anjaneya being traditional paddy conserver, is 
                                first farmer in India to create Japan paddy art 
                                in his quarter acre rice field using 2 different 
                                paddy varieties. 
 Read 
                                article  (in kannada) 
   
                           
  Hanchayalappa - Koppala 
                          District 
   
                           
 Brinjal Lover - Hanchayalappa 
                                is conserving 22 varieties of brinjal in his farm. 
                                He is a pioneer farmer who has a good knowledge 
                                in seed production of vegetables. His personal 
                                collection exceeds over hundred different varieties 
                                of vegetables and herb seeds.  
   
                           
 Email: sahajaseeds@gmail.com 
                     
 Top 

 Sahaja Samrudha is an initiative to preserve Indias traditional farming practices and conserve the rich biodiversity of indigenous crop varieties. Its goal is to revive and rejuvenate dying villages. 

 Sahaja Samrudha is an initiative to preserve Indias traditional farming practices and conserve the rich biodiversity of indigenous crop varieties. Its goal is to revive and rejuvenate dying villages.
 WHOLE PROJECT MARK